<?xml version="1.0" encoding="utf-8"?>
<!-- Generator: Adobe Illustrator 19.1.0, SVG Export Plug-In . SVG Version: 6.00 Build 0)  -->
<svg version="1.1" id="Layer_1" xmlns="http://www.w3.org/2000/svg" xmlns:xlink="http://www.w3.org/1999/xlink" x="0px" y="0px"
	 viewBox="0 0 19 37" enable-background="new 0 0 19 37" xml:space="preserve">
<path opacity="0.9" enable-background="new    " d="M18.6,2.5c0.6-0.6,0.6-1.5,0-2.1s-1.4-0.6-2,0l-16.2,17c-0.6,0.6-0.6,1.5,0,2.1
	l16.2,17c0.6,0.6,1.4,0.6,2,0c0.6-0.6,0.6-1.5,0-2.1l-14.7-16L18.6,2.5z"/>
</svg>
