<?xml version="1.0" encoding="utf-8"?>
<!-- Generator: Adobe Illustrator 19.1.0, SVG Export Plug-In . SVG Version: 6.00 Build 0)  -->
<svg version="1.1" id="Layer_1" xmlns="http://www.w3.org/2000/svg" xmlns:xlink="http://www.w3.org/1999/xlink" x="0px" y="0px"
	 viewBox="-229 83 41 41" style="enable-background:new -229 83 41 41;" xml:space="preserve">
<style type="text/css">
	.st0{opacity:0.6;fill:#FFFFFF;enable-background:new    ;}
	.st1{fill:#FFFFFF;}
</style>
<ellipse class="st0" cx="-208.5" cy="103.5" rx="5.3" ry="5.3"/>
<path class="st1" d="M-190.7,93.3c-5.7-9.8-18.2-13.2-28-7.5s-13.2,18.2-7.5,28c5.7,9.8,18.2,13.2,28,7.5S-185.1,103.1-190.7,93.3z
	 M-200.3,117.7c-7.8,4.5-17.9,1.8-22.4-6s-1.8-17.9,6-22.4s17.9-1.8,22.4,6S-192.5,113.2-200.3,117.7z"/>
</svg>
